{
  "label": "Backend Development",
  "position": 1,
  "link": {
    "type": "generated-index",
    "description": "This section details the process for developing the Storyteller \"backend\" systems (the API and web servers) locally."
  }
}
